{
    "variants": {
        "facing=north,candles=1": { "model": "buzzierbees:block/soul_candle" },
        "facing=south,candles=1": { "model": "buzzierbees:block/soul_candle", "y": 180 },
        "facing=west,candles=1":  { "model": "buzzierbees:block/soul_candle", "y": 270 },
        "facing=east,candles=1":  { "model": "buzzierbees:block/soul_candle", "y": 90 },
        "facing=north,candles=2": { "model": "buzzierbees:block/two_soul_candles" },
        "facing=south,candles=2": { "model": "buzzierbees:block/two_soul_candles", "y": 180 },
        "facing=west,candles=2":  { "model": "buzzierbees:block/two_soul_candles", "y": 270 },
        "facing=east,candles=2":  { "model": "buzzierbees:block/two_soul_candles", "y": 90 },
        "facing=north,candles=3": { "model": "buzzierbees:block/three_soul_candles" },
        "facing=south,candles=3": { "model": "buzzierbees:block/three_soul_candles", "y": 180 },
        "facing=west,candles=3":  { "model": "buzzierbees:block/three_soul_candles", "y": 270 },
        "facing=east,candles=3":  { "model": "buzzierbees:block/three_soul_candles", "y": 90 },
        "facing=north,candles=4": { "model": "buzzierbees:block/four_soul_candles" },
        "facing=south,candles=4": { "model": "buzzierbees:block/four_soul_candles", "y": 180 },
        "facing=west,candles=4":  { "model": "buzzierbees:block/four_soul_candles", "y": 270 },
        "facing=east,candles=4":  { "model": "buzzierbees:block/four_soul_candles", "y": 90 }
  }
}
